<?xml version="1.0" encoding="UTF-8"?>
<svg data-name="Layer 3" version="1.1" viewBox="0 0 64 64" xmlns="http://www.w3.org/2000/svg" xmlns:cc="http://creativecommons.org/ns#" xmlns:dc="http://purl.org/dc/elements/1.1/" xmlns:rdf="http://www.w3.org/1999/02/22-rdf-syntax-ns#">
 <metadata>
  <rdf:RDF>
   <cc:Work rdf:about="">
    <dc:format>image/svg+xml</dc:format>
    <dc:type rdf:resource="http://purl.org/dc/dcmitype/StillImage"/>
    <dc:title>close</dc:title>
   </cc:Work>
  </rdf:RDF>
 </metadata>
 <defs>
  <style>.cls-1{fill:none;}.cls-1,.cls-2{stroke:#000;stroke-linecap:round;stroke-miterlimit:10;stroke-width:2px;}</style>
 </defs>
 <title>close</title>
 <g shape-rendering="auto">
  <path d="m9.3954 9.3326c-12.488 12.488-12.488 32.766 0 45.255 12.488 12.488 32.766 12.488 45.255 0 12.488-12.488 12.488-32.766 0-45.255-12.488-12.488-32.766-12.488-45.255 0zm1.4142 1.4142c11.724-11.724 30.702-11.724 42.426 0 11.724 11.724 11.724 30.702 0 42.426-11.724 11.724-30.702 11.724-42.426 0-11.724-11.724-11.724-30.702 0-42.426z" color="#000000" color-rendering="auto" dominant-baseline="auto" image-rendering="auto" solid-color="#000000" style="font-feature-settings:normal;font-variant-alternates:normal;font-variant-caps:normal;font-variant-ligatures:normal;font-variant-numeric:normal;font-variant-position:normal;isolation:auto;mix-blend-mode:normal;shape-padding:0;text-decoration-color:#000000;text-decoration-line:none;text-decoration-style:solid;text-indent:0;text-orientation:mixed;text-transform:none;white-space:normal"/>
  <path d="m38.541 23.6a1.0001 1.0001 0 0 0 -0.6875 0.30274l-15.561 15.561a1.0001 1.0001 0 1 0 1.4141 1.4141l15.561-15.561a1.0001 1.0001 0 0 0 -0.72656 -1.7168z" color="#000000" color-rendering="auto" dominant-baseline="auto" image-rendering="auto" solid-color="#000000" style="font-feature-settings:normal;font-variant-alternates:normal;font-variant-caps:normal;font-variant-ligatures:normal;font-variant-numeric:normal;font-variant-position:normal;isolation:auto;mix-blend-mode:normal;shape-padding:0;text-decoration-color:#000000;text-decoration-line:none;text-decoration-style:solid;text-indent:0;text-orientation:mixed;text-transform:none;white-space:normal"/>
  <path d="m22.99 23.6a1.0001 1.0001 0 0 0 -0.69726 1.7168l15.561 15.561a1.0001 1.0001 0 1 0 1.4141 -1.4141l-15.561-15.561a1.0001 1.0001 0 0 0 -0.7168 -0.30274z" color="#000000" color-rendering="auto" dominant-baseline="auto" image-rendering="auto" solid-color="#000000" style="font-feature-settings:normal;font-variant-alternates:normal;font-variant-caps:normal;font-variant-ligatures:normal;font-variant-numeric:normal;font-variant-position:normal;isolation:auto;mix-blend-mode:normal;shape-padding:0;text-decoration-color:#000000;text-decoration-line:none;text-decoration-style:solid;text-indent:0;text-orientation:mixed;text-transform:none;white-space:normal"/>
 </g>
</svg>
