<?xml version="1.0" encoding="UTF-8" standalone="no"?>
<svg
   xmlns:dc="http://purl.org/dc/elements/1.1/"
   xmlns:cc="http://creativecommons.org/ns#"
   xmlns:rdf="http://www.w3.org/1999/02/22-rdf-syntax-ns#"
   xmlns:svg="http://www.w3.org/2000/svg"
   xmlns="http://www.w3.org/2000/svg"
   xmlns:sodipodi="http://sodipodi.sourceforge.net/DTD/sodipodi-0.dtd"
   xmlns:inkscape="http://www.inkscape.org/namespaces/inkscape"
   viewBox="0 0 64 56.03"
   version="1.1"
   id="svg14"
   sodipodi:docname="mail2.svg"
   inkscape:version="0.92.1 r15371">
  <metadata
     id="metadata18">
    <rdf:RDF>
      <cc:Work
         rdf:about="">
        <dc:format>image/svg+xml</dc:format>
        <dc:type
           rdf:resource="http://purl.org/dc/dcmitype/StillImage" />
      </cc:Work>
    </rdf:RDF>
  </metadata>
  <sodipodi:namedview
     pagecolor="#ffffff"
     bordercolor="#666666"
     borderopacity="1"
     objecttolerance="10"
     gridtolerance="10"
     guidetolerance="10"
     inkscape:pageopacity="0"
     inkscape:pageshadow="2"
     inkscape:window-width="1278"
     inkscape:window-height="693"
     id="namedview16"
     showgrid="false"
     inkscape:zoom="5.956709"
     inkscape:cx="40.191402"
     inkscape:cy="29.962285"
     inkscape:window-x="0"
     inkscape:window-y="0"
     inkscape:window-maximized="0"
     inkscape:current-layer="svg14" />
  <defs
     id="defs4">
    <style
       id="style2">.a{fill:none;stroke:#010204;stroke-linecap:round;stroke-miterlimit:10;stroke-width:2px;}.b{fill:#201600;}</style>
  </defs>
  <title
     id="title6">mail</title>
  <path
     style="color:#000000;font-style:normal;font-variant:normal;font-weight:normal;font-stretch:normal;font-size:medium;line-height:normal;font-family:sans-serif;font-variant-ligatures:normal;font-variant-position:normal;font-variant-caps:normal;font-variant-numeric:normal;font-variant-alternates:normal;font-feature-settings:normal;text-indent:0;text-align:start;text-decoration:none;text-decoration-line:none;text-decoration-style:solid;text-decoration-color:#000000;letter-spacing:normal;word-spacing:normal;text-transform:none;writing-mode:lr-tb;direction:ltr;text-orientation:mixed;dominant-baseline:auto;baseline-shift:baseline;text-anchor:start;white-space:normal;shape-padding:0;clip-rule:nonzero;display:inline;overflow:visible;visibility:visible;opacity:1;isolation:auto;mix-blend-mode:normal;color-interpolation:sRGB;color-interpolation-filters:linearRGB;solid-color:#000000;solid-opacity:1;vector-effect:none;fill-opacity:1;fill-rule:nonzero;stroke:none;stroke-width:2px;stroke-linecap:round;stroke-linejoin:miter;stroke-miterlimit:10;stroke-dasharray:none;stroke-dashoffset:0;stroke-opacity:1;color-rendering:auto;image-rendering:auto;shape-rendering:auto;text-rendering:auto;enable-background:accumulate;"
     d="M 1.5019531 17.363281 A 1.0001 1.0001 0 0 0 1.0097656 19.21875 L 29.798828 37.216797 C 31.146138 38.062797 32.865581 38.062797 34.212891 37.216797 L 34.212891 37.21875 L 62.902344 19.21875 A 1.0003685 1.0003685 0 1 0 61.839844 17.523438 L 33.148438 35.523438 C 32.447547 35.963437 31.562228 35.963437 30.861328 35.523438 L 2.0703125 17.523438 A 1.0001 1.0001 0 0 0 1.5019531 17.363281 z "
     id="path8" />
  <path
     style="color:#000000;font-style:normal;font-variant:normal;font-weight:normal;font-stretch:normal;font-size:medium;line-height:normal;font-family:sans-serif;font-variant-ligatures:normal;font-variant-position:normal;font-variant-caps:normal;font-variant-numeric:normal;font-variant-alternates:normal;font-feature-settings:normal;text-indent:0;text-align:start;text-decoration:none;text-decoration-line:none;text-decoration-style:solid;text-decoration-color:#000000;letter-spacing:normal;word-spacing:normal;text-transform:none;writing-mode:lr-tb;direction:ltr;text-orientation:mixed;dominant-baseline:auto;baseline-shift:baseline;text-anchor:start;white-space:normal;shape-padding:0;clip-rule:nonzero;display:inline;overflow:visible;visibility:visible;opacity:1;isolation:auto;mix-blend-mode:normal;color-interpolation:sRGB;color-interpolation-filters:linearRGB;solid-color:#000000;solid-opacity:1;vector-effect:none;fill-opacity:1;fill-rule:nonzero;stroke:none;stroke-width:2px;stroke-linecap:round;stroke-linejoin:miter;stroke-miterlimit:10;stroke-dasharray:none;stroke-dashoffset:0;stroke-opacity:1;color-rendering:auto;image-rendering:auto;shape-rendering:auto;text-rendering:auto;enable-background:accumulate;"
     d="M 31.121094 -0.0078125 C 29.465489 -0.0078125 27.810031 0.50298652 26.404297 1.5195312 L 2.4199219 16.361328 C 0.95154485 17.036881 -0.003013768 18.508294 0 20.132812 L 0 51.890625 C 0 54.170725 1.8702606 56.041016 4.1503906 56.041016 L 59.849609 56.041016 C 62.129749 56.041016 64 54.170725 64 51.890625 L 64 19.400391 C 64.01224 18.175991 63.273305 17.061003 62.140625 16.595703 L 62.257812 16.652344 L 35.841797 1.5234375 C 34.434864 0.50404815 32.779004 -0.0078125 31.121094 -0.0078125 z M 31.121094 1.9882812 C 32.383834 1.9882812 33.646607 2.3848813 34.716797 3.1757812 L 34.763672 3.2089844 L 61.320312 18.421875 L 61.380859 18.445312 C 61.762159 18.601913 62.00412 18.968659 62 19.380859 L 62 19.386719 L 62 51.890625 C 62 53.089825 61.048869 54.041016 59.849609 54.041016 L 4.1503906 54.041016 C 2.9511406 54.041016 2 53.089825 2 51.890625 L 2 20.130859 L 2 20.128906 C 1.9984 19.259006 2.5162894 18.479578 3.3183594 18.142578 L 3.390625 18.113281 L 27.492188 3.1992188 L 27.525391 3.1757812 C 28.595591 2.3848812 29.858354 1.9882813 31.121094 1.9882812 z "
     id="path10" />
  <path
     style="stroke:none;fill-rule:nonzero;fill-opacity:1"
     d="M 32.240234 7.390625 A 12.74 12.74 0 0 0 27.619141 8.2304688 A 11.7 11.7 0 0 0 23.779297 10.630859 A 11.47 11.47 0 0 0 21.150391 14.390625 A 12.07 12.07 0 0 0 20.150391 19.330078 A 12.2 12.2 0 0 0 21 24.060547 A 9.48 9.48 0 0 0 23.369141 27.490234 A 10.07 10.07 0 0 0 26.960938 29.570312 A 14 14 0 0 0 31.470703 30.269531 A 13.35 13.35 0 0 0 33.919922 30.070312 A 8.28 8.28 0 0 0 36.019531 29.369141 L 35.240234 26.960938 A 7.11 7.11 0 0 1 33.560547 27.490234 A 9 9 0 0 1 31.900391 27.669922 A 11.45 11.45 0 0 1 28.070312 27.080078 A 7.59 7.59 0 0 1 25.269531 25.400391 A 7.14 7.14 0 0 1 23.550781 22.75 A 9.85 9.85 0 0 1 22.960938 19.240234 A 9.52 9.52 0 0 1 23.660156 15.560547 A 8.83 8.83 0 0 1 25.609375 12.640625 A 9.11 9.11 0 0 1 28.529297 10.710938 A 9.33 9.33 0 0 1 32.169922 10.009766 A 12.16 12.16 0 0 1 35.359375 10.410156 A 7.06 7.06 0 0 1 37.929688 11.679688 A 6.07 6.07 0 0 1 39.650391 13.880859 A 7.49 7.49 0 0 1 40.279297 17.089844 A 7.26 7.26 0 0 1 39.970703 19.349609 A 5 5 0 0 1 39.150391 20.929688 A 3.26 3.26 0 0 1 38.019531 21.859375 A 2.94 2.94 0 0 1 36.740234 22.160156 A 0.8 0.8 0 0 1 35.900391 21.630859 A 3.71 3.71 0 0 1 35.900391 19.919922 L 37.109375 13.119141 L 35.349609 13.119141 L 34.5 13.890625 A 4.47 4.47 0 0 0 33.400391 13.199219 A 3.69 3.69 0 0 0 31.919922 12.939453 A 4.61 4.61 0 0 0 29.5 13.630859 A 7.24 7.24 0 0 0 27.5 15.449219 A 9.05 9.05 0 0 0 26.130859 18.050781 A 9.28 9.28 0 0 0 25.630859 21.050781 A 4.51 4.51 0 0 0 25.869141 22.560547 A 3.66 3.66 0 0 0 26.509766 23.710938 A 2.81 2.81 0 0 0 27.509766 24.449219 A 2.64 2.64 0 0 0 28.660156 24.710938 A 4 4 0 0 0 30.039062 24.480469 A 4.51 4.51 0 0 0 31.199219 23.859375 A 6 6 0 0 0 32.199219 22.970703 C 32.492552 22.65737 32.766198 22.324036 33.019531 21.970703 L 33.119141 21.970703 A 3.19 3.19 0 0 0 33.220703 23.269531 A 1.94 1.94 0 0 0 33.759766 24.119141 A 2.1 2.1 0 0 0 34.660156 24.580078 A 4.71 4.71 0 0 0 35.830078 24.720703 A 6.72 6.72 0 0 0 38.650391 24.119141 A 7.43 7.43 0 0 0 42.519531 20.050781 A 8 8 0 0 0 43.080078 17.050781 A 9.63 9.63 0 0 0 42.25 12.970703 A 8.78 8.78 0 0 0 39.970703 9.9707031 A 10.28 10.28 0 0 0 36.529297 8.0605469 A 13.45 13.45 0 0 0 32.240234 7.390625 z M 32.210938 15.539062 A 2.25 2.25 0 0 1 33.089844 15.689453 A 2.72 2.72 0 0 1 33.769531 16.119141 L 33.160156 19.539062 A 7.28 7.28 0 0 1 32.529297 20.539062 A 6.88 6.88 0 0 1 31.800781 21.339844 A 3.68 3.68 0 0 1 31.019531 21.910156 A 1.62 1.62 0 0 1 30.269531 22.119141 A 1.28 1.28 0 0 1 29.099609 21.589844 A 2.47 2.47 0 0 1 28.759766 20.230469 A 5.71 5.71 0 0 1 29.009766 18.589844 A 5.39 5.39 0 0 1 29.720703 17.070312 A 4.08 4.08 0 0 1 30.820312 15.970703 A 2.47 2.47 0 0 1 32.210938 15.539062 z "
     id="path12" />
</svg>
